/Users/christophernde/Library/Mobile Documents/com~apple~CloudDocs/projects/trainings/udemy/jenkins/aem-guides-wknd-events/core/src/main/java/com/adobe/aem/guides/wkndevents/core/models/impl/HierarchyComponentContextWrapper.java
/Users/christophernde/Library/Mobile Documents/com~apple~CloudDocs/projects/trainings/udemy/jenkins/aem-guides-wknd-events/core/src/main/java/com/adobe/aem/guides/wkndevents/core/models/impl/HierarchyPageImpl.java
/Users/christophernde/Library/Mobile Documents/com~apple~CloudDocs/projects/trainings/udemy/jenkins/aem-guides-wknd-events/core/src/main/java/com/adobe/aem/guides/wkndevents/core/models/impl/BaseComponentExporter.java
/Users/christophernde/Library/Mobile Documents/com~apple~CloudDocs/projects/trainings/udemy/jenkins/aem-guides-wknd-events/core/src/main/java/com/adobe/aem/guides/wkndevents/core/package-info.java
/Users/christophernde/Library/Mobile Documents/com~apple~CloudDocs/projects/trainings/udemy/jenkins/aem-guides-wknd-events/core/src/main/java/com/adobe/aem/guides/wkndevents/core/models/HierarchyPage.java
